{
    "fbConfig":{
        "apiKey": "AIzaSyD0j4SPMBq8unGQMZUYyIiemJlxrn8WavQ",
        "authDomain": "bro3-6ba50.firebaseapp.com",
        "databaseURL": "https://bro3-6ba50.firebaseio.com",
        "projectId": "bro3-6ba50",
        "storageBucket": "bro3-6ba50.appspot.com",
        "messagingSenderId": "445843796736",
        "appId": "1:445843796736:web:32e0dc16f8a7e1596879e5",
        "measurementId": "G-GP4FW6WQW2"
      }
}